module github.com/mback2k/smtp-dkim-signer

go 1.12

require (
	github.com/cenkalti/backoff/v3 v3.2.2 // indirect
	github.com/emersion/go-msgauth v0.4.0
	github.com/emersion/go-sasl v0.0.0-20191210011802-430746ea8b9b
	github.com/emersion/go-smtp v0.12.1
	github.com/heroku/rollrus v0.1.1
	github.com/klauspost/cpuid v1.2.3 // indirect
	github.com/mholt/certmagic v0.9.3
	github.com/miekg/dns v1.1.27 // indirect
	github.com/pelletier/go-toml v1.6.0 // indirect
	github.com/pkg/errors v0.9.1 // indirect
	github.com/rollbar/rollbar-go v1.2.0
	github.com/rollbar/rollbar-go/errors v0.0.0-20191126182519-4b2c800372e7
	github.com/sirupsen/logrus v1.4.2
	github.com/spf13/afero v1.2.2 // indirect
	github.com/spf13/cast v1.3.1 // indirect
	github.com/spf13/jwalterweatherman v1.1.0 // indirect
	github.com/spf13/pflag v1.0.5 // indirect
	github.com/spf13/viper v1.6.2
	golang.org/x/crypto v0.0.0-20200210222208-86ce3cb69678 // indirect
	golang.org/x/net v0.0.0-20200202094626-16171245cfb2 // indirect
	golang.org/x/sys v0.0.0-20200212091648-12a6c2dcc1e4 // indirect
	gopkg.in/ini.v1 v1.52.0 // indirect
	gopkg.in/square/go-jose.v2 v2.4.1 // indirect
	gopkg.in/yaml.v2 v2.2.8 // indirect
)
